

Marcelo - 1 - 2 - 3 - 4 - 5 - 6 - 7 - 8 - 9 - 10 - 11 - 12
Carlos - 10 - 20 - 30 - 40 - 50 - 60 - 70 - 80 - 90 - 100 - 110 - 120
Vitor - 15 - 25 - 35 - 45 - 55 - 65 - 75 - 85 - 95 - 105 - 115 - 125

